name = Device 1-8
world_key = world-1
[LEVEL]
_########___########_
_#......#___#......#_
_#.####.#___#.####.#_
_#.#__#.#___#.#__#.#_
##.####.#####.####.##
#...................#
##.####.#####.####.##
_#.#__#.#___#.#__#.@#
_#.#__#.#####.#__#..#
_#.#__#.......#__#2##
_###__#########__#.#_
_________________#.#_
_________________###_
[DRONES]
1,5->19,5 3
10,5->1,5->19,5 3
10,5->19,5->1,5 3
19,5->1,5 3
[FLAGS]
level1-9:18,11
key-2:2,9
