name = Device 0-2
world_key = world-0
[LEVEL]
_________##########
_________#...00...#
_________#.@.00...#
_________#...00...#
##########...##...#
#............##...#
#............##...#
#............##...#
#...###########...#
#.................#
#.................#
###################
[DRONES]
1,5->12,5->12,7->1,7 2
14,9->4,9->4,10->14,10 2
[FLAGS]
key-0:16,2
